769091 236571 509
690037 308853 509
4117 666014 509
185359 874015 525
547418 664548 509
22722 737658 509
185898 829411 509
778630 161546 509
262454 524825 470
440300 115782 449
955889 292882 525
628479 270045 509
491967 136884 449
26328 42289 324
163587 17822 383
441536 397130 449
842585 88769 525
622612 366222 470
970456 789451 525
869665 612484 525
507926 370545 449
218935 133337 386
770477 28176 509
481941 754296 509
802086 22643 509
256180 804477 509
386886 538691 470
110555 440159 449
504195 598145 470
456877 931894 525
737717 858168 525
805862 182762 509
81954 753179 509
204421 310552 443
655812 704271 442
249847 785574 509
745501 547838 509
401996 228290 443
146766 890773 525
394237 700496 509
88034 958605 525
93826 687387 509
938280 201239 525
480666 249356 449
682092 119021 509
743455 866212 525
281760 29179 443
248403 710098 509
191338 400036 443
725147 17226 509
633086 574943 509
833260 770007 468
535829 434704 470
435005 930274 525
224478 422031 449
911095 312306 525
302441 907394 525
643290 503424 509
440972 666212 509
723758 496213 509
258606 461107 449
64621 435090 449
256899 271592 407
536317 787662 509
978059 616513 525
413867 841549 525
822455 621466 509
355715 119369 443
560983 331829 470
993702 610386 525
288783 619156 470
691594 963295 525
103818 366261 443
379209 579716 470
425247 569546 470
645649 504306 509
417254 992788 525
400250 138379 443
769207 337895 509
561491 738511 509
506800 412802 444
796820 153902 509
469152 895173 525
948824 195817 525
72773 592723 470
406221 38144 443
822519 859475 525
537673 896348 525
202220 240162 443
5880 259211 443
168188 124541 383
563857 565027 421
436725 48178 449
455986 253408 449
934930 122344 525
635297 620344 509
442743 862378 525
567460 976714 525
402371 817736 509
926043 412071 525
114305 464255 449
249046 128922 443
985280 683199 525
756804 324840 509
138120 787487 509
643460 379061 509
684339 268275 509
726215 168788 509
643960 357373 509
503535 891132 525
753070 94172 509
841197 158627 525
429698 51656 449
403362 990754 525
178557 503370 449
935191 791781 525
168787 607889 470
575747 803868 509
577500 733562 509
619050 251525 470
919657 574251 525
831420 478782 509
823360 84732 509
922115 160121 525
339371 423106 449
861096 789482 525
551509 622974 447
211363 823769 509
105695 990968 525
928220 31004 525
830839 407749 509
926391 468501 525
410545 466203 444
117866 932343 525
134005 837805 525
529862 183530 470
960878 947949 414
109252 600036 470
374009 368345 392
957286 65907 525
804163 231559 509
401049 237109 441
218060 759915 509
855081 142533 525
884712 439435 525
108349 464974 449
362416 195227 443
227099 828132 509
136159 642600 509
781903 900018 525
83798 594902 470
509410 100608 449
571565 107714 470
627700 616509 509
761184 166700 509
700537 130910 509
313437 536811 470
535926 380612 470
278553 728765 509
251281 263270 407
311870 748976 509
404125 681054 509
655887 20634 509
837470 722235 468
535448 233822 470
647172 542974 509
685109 970610 525
806029 726204 468
101612 306491 443
139413 481356 449
70318 382129 443
716492 617290 509
950424 513391 525
815431 574062 509
42567 567502 470
394400 70176 443
376294 975929 525
141950 305160 443
631771 964204 525
413514 764919 509
89736 424225 449
497230 513897 470
115934 9942 354
334814 622124 470
637880 635713 354
941793 92393 525
522110 617079 452
976515 477300 525
194493 343043 443
876091 878714 401
885809 993528 507
35985 405162 443
843734 190286 525
933171 970967 507
365891 987998 525
816467 23184 509
323157 245367 407
534267 193603 470
564753 178031 470
71830 558607 470
668384 363718 509
40623 69838 340
822777 403538 509
790090 921267 525
937531 540976 525
582891 410874 470
874186 581436 525
590329 498549 470
290863 427166 449
400286 133697 443
13980 811398 509
508512 824350 509
541581 996039 525
707079 903351 525
375010 66288 443
62859 501861 449
493346 468440 426
858629 843902 419
960554 654239 525
307802 527931 470
452158 482546 444
866351 225356 525
679930 581367 509
844926 764133 525
674337 513516 509
940845 184515 525
606101 597084 403
78921 963760 525
416856 711263 509
136601 839763 525
154300 206767 383
221965 110818 386
292033 508399 449
795308 431793 509
932954 830794 525
746449 827009 468
734451 596345 509
322315 566636 470
427048 323348 449
35142 199495 383
913236 463841 525
962556 144259 525
807068 821724 450
991626 688888 525
935438 459854 525
5079 251545 443
228615 736580 509
218346 203801 386
453345 774554 509
980156 346984 525
