761512 954919 525
869901 724008 525
293762 407667 441
826412 852368 525
462752 587148 470
819666 661085 504
403618 976421 525
289994 263611 407
105591 273697 443
998479 609344 525
715493 212374 509
864153 339635 525
369055 499684 449
18331 615299 470
596472 813100 509
760457 830004 468
728327 428646 509
558599 725577 509
960066 643093 525
82462 329056 443
49028 170675 383
145210 607114 470
637794 948229 525
733431 870970 525
743834 587397 509
432790 817118 509
197631 136353 383
933 202136 383
561751 576645 421
149512 373650 443
667577 98159 509
244864 598588 470
428998 819934 509
828695 12765 509
132900 816889 509
656974 288780 509
497857 999934 525
191985 288860 443
138157 204419 383
68121 314591 443
674733 475557 509
761784 88053 509
701376 663924 442
778221 53731 509
729036 460818 509
649589 171446 509
527093 461042 470
989467 171745 525
872460 296202 525
657294 59324 509
942869 174779 525
937749 825990 525
421276 546722 470
910607 289985 525
847762 119179 525
823930 595844 509
616359 357855 470
189226 858413 525
484108 704276 509
712075 221126 509
693902 702178 411
549917 320434 470
881997 531522 525
786318 154182 509
864626 635318 525
973973 639049 525
646701 299961 509
974356 586078 525
824974 785697 468
488137 100758 449
54330 590316 470
721675 937472 525
164962 781170 509
208433 887986 525
45798 621782 470
903541 441255 525
884152 841280 432
433349 47346 449
224209 820576 509
785015 500346 509
821886 650081 504
793483 881766 525
129766 252765 443
994294 990119 352
657656 396254 509
511566 622959 470
938311 683892 525
185638 196272 360
986391 718465 525
301523 199667 443
82053 982782 525
184605 257037 443
38673 139817 354
784862 408062 509
641851 827876 504
342096 210361 443
79710 883206 525
248875 283683 407
223080 469325 449
778885 781899 362
900901 632147 525
247684 834815 509
409347 200696 443
665937 747106 504
818182 374897 509
323272 311538 384
53976 426869 449
16232 189428 383
296825 974118 525
517593 547787 452
823811 993668 525
14414 335287 443
417335 33198 449
349786 604599 470
287375 489643 449
164896 618131 470
50306 477599 449
942027 735891 525
296566 759440 509
524048 924818 525
879531 567233 525
396442 731602 509
888410 856464 445
115686 191366 383
831978 278330 509
631555 205638 509
110412 122370 349
281767 526981 470
203730 402324 443
920288 942661 507
556063 3006 470
888369 638447 525
429873 42926 449
776204 672000 504
576905 136159 470
356946 455484 449
608497 170577 470
271240 426613 449
935710 216402 525
77598 842688 525
753907 216726 509
838968 112043 525
747235 963116 525
627792 5103 509
922525 767565 525
480905 965398 525
648811 929726 525
808417 204436 509
107329 397689 443
516393 584538 452
327558 625035 470
812799 687655 504
877390 27834 525
520203 403200 470
509236 186914 449
184953 768002 509
462185 471710 413
107345 255703 443
547791 868527 525
881031 864987 432
974273 292888 525
572047 238991 470
430989 873864 525
798515 553889 509
680265 822283 504
225090 459262 449
436302 214463 449
934446 803649 525
811031 232234 509
100383 174851 383
714256 412596 509
242989 18460 443
237562 124149 443
680027 447608 509
516150 319120 470
791719 196291 509
491276 150288 449
146442 978877 525
659261 324255 509
443759 177676 449
290767 424284 449
866222 309792 525
780872 972651 525
940155 361717 525
785346 955453 525
199866 882773 525
437897 610335 470
466637 256790 449
922789 911203 445
15259 278254 443
120674 612785 470
669088 740814 504
396039 133072 443
113117 471556 449
626415 795516 504
970516 706882 525
833618 569875 509
825491 420953 509
863886 694267 525
957871 508113 525
118346 593411 470
205181 268619 443
679517 206999 509
798181 460150 509
560398 782538 509
642387 905331 525
45574 78568 351
968528 863392 507
206350 509072 449
770156 912127 525
182261 209168 373
787608 41266 509
420191 213092 449
843970 734855 525
248872 690871 509
417479 449312 418
598091 524100 452
307414 50861 443
502637 338202 449
792977 415127 509
217807 874007 525
957066 125838 525
989313 421619 525
477326 291276 449
846406 195890 525
241194 130787 443
632137 680533 442
399790 48544 443
801198 289660 509
481328 489168 382
637962 220788 509
49727 101004 351
62167 46870 340
401590 671260 509
471993 607844 470
604763 102123 470
558514 260369 470
800366 697278 504
963904 994776 458
874876 214589 525
588364 995592 525
508922 703918 509
92655 346165 443
858518 534878 525
655036 330675 509
259350 297311 407
161310 432325 449
234244 769188 509
898214 610897 525
872064 367742 525
