637871 673969 442
790275 360119 509
492109 733556 509
660173 328089 509
338697 541348 470
830212 311621 509
914786 902557 476
741006 88373 509
932609 4150 525
333878 267259 407
317863 324628 384
865542 612242 525
762307 406783 509
988436 280690 525
223295 598731 470
621071 422842 470
633396 106742 509
353884 236772 441
259164 812884 509
416095 553924 470
194924 783172 509
89143 396975 443
437946 573931 470
934717 701583 525
212147 403118 443
348571 871157 525
719369 616203 509
814485 916510 525
844313 930398 476
843019 625432 525
916001 418719 525
100232 31910 351
859246 779719 525
351534 449948 449
924798 842672 476
824057 250110 509
312510 877650 525
292456 292098 296
87553 688564 509
433061 795688 509
724015 245667 509
964908 992910 458
649913 121951 509
480441 331503 449
163082 973047 525
466156 691121 509
618681 183298 470
643790 656681 385
537887 28055 470
500314 846359 525
43662 921167 525
425858 300393 449
79178 269464 443
999468 126364 525
433426 40511 449
85840 494308 449
579895 272169 470
24353 957196 525
767645 233559 509
830080 549398 509
935829 992119 507
616566 314674 470
540824 624139 452
560937 562025 328
492222 899060 525
266251 86345 443
727351 676990 504
784730 51209 509
626212 304926 470
513239 385139 470
192624 671228 509
467122 507645 426
295634 955929 525
434622 471938 444
641177 631969 416
588190 289638 470
681744 958692 525
276714 611351 470
465281 422768 444
574741 472243 470
905769 302507 525
461618 361126 449
106713 966037 525
985689 457833 525
913612 556250 525
653554 585770 509
723049 465127 509
803765 706032 468
446433 833553 509
997785 282216 525
13261 620792 470
540007 693008 509
610005 200618 470
160737 972482 525
616623 866120 525
280072 741614 509
623860 625946 385
668454 896175 525
851108 548624 525
310244 282000 389
65828 315039 443
114867 570054 470
861531 546464 525
720049 196908 509
408570 954939 525
870223 381015 525
570853 861124 525
263817 866960 525
142446 643420 509
164586 795053 509
347571 309490 441
142960 786412 509
497511 189729 449
507207 654459 509
355678 646407 509
220902 819143 509
669909 319993 509
346004 801536 509
373538 830737 509
447723 417819 418
355212 209736 443
80285 671223 509
520316 431268 470
252692 438580 449
361795 875933 525
231617 904536 525
30917 487 308
555605 379145 470
212008 649593 509
230674 634961 509
205531 841305 525
995078 915770 507
57600 207992 383
849063 83360 525
147667 774954 509
633750 864076 525
687000 124990 509
786572 166379 509
301385 516282 470
956476 750173 525
7383 5369 262
87202 319575 443
301071 943726 525
709909 620421 509
584886 377795 470
379913 15485 443
701198 321692 509
910433 623190 525
630570 999057 525
949939 993521 458
650383 383779 509
892499 892284 295
593247 577716 434
292987 659899 509
513781 589920 452
609551 760330 509
913640 250076 525
379755 551478 470
557090 173984 470
801771 866291 525
642287 145659 509
761859 716038 424
710978 802153 468
430070 164353 449
503649 637263 509
936735 853878 476
968790 141119 525
638221 947086 525
36398 286067 443
484418 411227 444
999535 704157 525
480792 9950 449
236747 326212 407
136644 638028 509
453200 518478 470
296223 536461 470
868841 324843 525
9979 162610 383
905667 88261 525
518541 773564 509
338738 845803 525
199115 487361 449
961476 882015 507
655041 399501 509
898793 770205 525
306373 750018 509
686900 385205 509
999433 917027 507
171009 746359 509
430046 424814 374
543846 837477 509
797357 945905 525
149955 693020 509
771813 103721 509
680397 51839 509
676341 563056 509
333105 841290 525
379778 837135 509
183792 268630 443
598159 966992 525
564172 342513 470
844198 122246 525
174310 191630 365
438360 848513 525
881263 175438 525
779263 446896 509
653264 975177 525
954980 132028 525
938495 174574 525
629312 575842 509
238151 67872 443
511544 418477 444
842322 57592 525
269637 943695 525
721587 142075 509
279162 148442 443
72566 82159 351
469786 207023 449
273127 405857 441
676280 363620 509
592302 286849 470
160733 340049 443
348910 842877 525
185444 443126 449
408604 955916 525
293145 90217 443
129013 443028 449
254474 106790 443
580778 855427 525
525953 263189 470
207981 537736 470
447025 248148 449
210209 849709 525
559490 449293 470
210436 579368 470
130230 706037 509
520316 543881 408
903262 694123 525
137499 616326 470
147077 824787 509
604808 397857 470
928677 972110 507
559933 310725 470
342273 108569 443
367411 353156 410
856556 996852 507
246596 941215 525
729896 438083 509
678043 713907 504
51749 94183 351
