1 10 20
100 200 125
201 210 89
900 1000 174
567658 916320 525
797562 915107 525
282661 996106 525
516315 654518 509
512838 715393 509
465370 871418 525
458504 729282 509
553151 820780 509
918151 925528 445
863063 964978 507
588301 256328 470
976910 380768 525
700176 54456 509
970583 227973 525
420867 207417 449
326315 710088 509
437126 429538 387
801877 542854 509
299793 442349 449
353795 443261 449
862759 852156 419
710937 121016 509
77092 586364 470
209931 712338 509
69706 786655 509
565234 438950 470
378610 206311 443
751464 920304 525
258454 909197 525
261895 533859 470
820617 53463 509
644920 739890 504
678376 809967 504
206420 73281 383
646212 903751 525
740177 738963 424
304745 604700 470
782788 340268 509
351102 255276 441
278743 941745 525
687686 107882 509
287254 497966 449
935619 370430 525
494068 217713 449
159498 614759 470
704913 500734 509
392003 610926 470
997880 93797 525
548266 991526 525
946797 208029 525
635372 696838 442
346626 295584 441
139760 480108 449
649395 958404 525
97151 64710 351
835254 514120 509
278758 131940 443
84739 788812 509
92201 592976 470
213798 916105 525
310137 722977 509
921218 323597 525
597458 862100 525
347339 200999 443
933635 917887 476
242182 169106 443
870784 738839 525
781824 389712 509
956733 754679 525
898280 331610 525
5201 982603 525
720374 571525 509
336686 491062 449
676203 531213 509
420839 245860 449
37344 880616 525
768821 395469 509
46060 767651 509
640854 428520 509
815983 29647 509
515455 396645 470
680251 414505 509
562663 276706 470
540010 326393 470
472418 757290 509
764347 411548 509
939331 13769 525
982404 458311 525
533225 592658 452
525726 716000 509
361088 31840 443
633358 373815 509
263824 150931 443
150510 361581 443
334197 745335 509
209546 149045 383
498339 770366 509
214182 724404 509
904180 976508 507
468520 527563 470
462252 605567 470
9100 23460 279
3724 21997 279
34365 46022 324
17649 42688 324
17159 34936 311
12655 37357 324
22822 42922 324
49050 49696 296
10322 41669 324
1903 24901 282
47820 47877 190
16686 38121 324
17334 25123 282
34188 37419 324
11664 20558 279
49806 49944 265
41868 44503 288
45049 47769 314
36430 42641 306
28680 46997 324
436397 878265 525
960779 583485 525
966985 673495 525
104858 194937 383
659925 758791 504
901720 310788 525
126763 779246 509
348857 939079 525
756532 745739 424
525127 981930 525
442612 532381 470
870356 954399 507
702867 199072 509
318105 297963 384
616123 925347 525
523620 887303 525
986620 529829 525
412462 617614 470
894738 36203 525
503555 254532 449
95627 707443 509
117646 539027 470
640897 385666 509
704067 369429 509
653565 913133 525
305933 525 443
1989 369781 443
381965 435743 449
978933 725029 525
328633 866518 525
616124 418157 470
722766 779984 468
972141 178359 525
503699 204591 449
645620 764084 504
624978 567322 447
354422 406888 436
633466 2318 509
745962 249420 509
846725 339392 525
265257 42305 443
55244 227895 386
525600 730186 509
994505 228221 525
107243 440291 449
365704 259236 441
511383 801300 509
670183 397106 509
192992 545665 470
503874 648052 509
440623 729661 509
661272 783376 504
562344 593806 434
805200 171887 509
806861 836352 450
678269 850604 525
193992 733094 509
650937 463901 509
418781 760760 509
237200 660909 509
481583 156793 449
289132 750225 509
667281 379358 509
12571 677314 509
523557 856242 525
175302 426595 449
66501 606024 470
696879 687404 442
870535 890799 445
71212 796011 509
348150 330265 441
123331 70722 354
111809 279569 443
520242 880368 525
7107 109313 354
882546 171292 525
326830 66459 443
858037 125930 525
428053 567888 470
277163 881032 525
938658 741093 525
333204 452940 449
887489 394030 525
168811 672622 509
428316 12629 449
24888 353660 443
583542 408066 470
20910 529174 470
920489 902874 476
437640 449296 400
719545 152073 509
872121 756099 525
939627 360547 525
516804 830530 509
147427 535494 470
419340 40975 449
493075 858813 525
244613 886699 525
509142 474668 426
916052 277887 525