752074 330792 509
867733 408185 525
937959 786951 525
977985 546562 525
403091 563689 470
84758 517876 470
965992 540407 525
985098 670548 525
422568 100887 449
537723 248442 470
464063 361564 449
386791 731078 509
127175 898112 525
881528 763160 525
271594 787004 509
407799 433732 449
240292 886040 525
717634 58616 509
628884 880628 525
331382 618704 470
590918 563621 434
457703 966682 525
288671 282212 389
706750 660301 504
433722 382400 449
858027 276062 525
878621 175206 525
673159 355158 509
441911 483410 444
338617 283236 389
494831 906631 525
709891 350761 509
617656 676919 509
676805 164331 509
7315 157483 383
82980 104788 341
103199 80738 341
588481 47238 470
647859 125336 509
630241 288020 509
647085 977316 525
38109 265552 443
416164 350824 449
891478 409201 525
871235 612082 525
758848 609043 509
740181 485410 509
777766 437908 509
283445 861790 525
636897 563654 509
177802 500058 449
993379 59705 525
724079 677423 504
908295 318009 525
182856 524994 470
888821 350929 525
14739 77139 351
735263 764476 424
29569 655633 509
771911 160588 509
881487 774403 525
76858 846321 525
966171 792528 525
432796 699740 509
179791 597630 470
659801 813368 504
160627 451349 449
971386 181981 525
305726 705328 509
209929 722713 509
154841 284743 443
521008 77213 470
350557 21191 443
145108 59759 375
505619 160849 449
124393 904172 525
665147 102351 509
707621 838577 525
92031 908688 525
249309 322623 407
961452 451886 525
501981 177368 449
201450 86917 383
363256 772397 509
502695 217984 449
132509 388656 443
84182 736878 509
480092 147924 449
738446 610099 509
719232 613656 509
669312 926801 525
394631 632190 509
137442 949157 525
60049 598732 470
407368 695671 509
830328 9354 509
434646 5527 449
229079 24299 386
567238 806290 509
812855 290866 509
469812 2448 449
806765 889195 525
738704 959372 525
339779 142500 443
728734 322309 509
782757 980021 525
773070 858153 525
220695 231388 443
376277 405790 436
751872 956436 525
273297 91804 443
470333 460557 444
847527 465094 525
68604 558817 470
328915 134410 443
804846 182462 509
327819 541618 470
505946 417048 444
511251 595159 470
519848 113022 470
176039 240739 443
50450 119711 354
955557 83316 525
759519 629717 504
428556 867563 525
497674 189717 449
186811 410731 449
640835 148863 509
822644 681572 504
5250 650090 509
790806 504015 509
383859 60569 443
741420 42762 509
96268 708955 509
954494 61212 525
512389 941622 525
209327 271789 443
750106 401016 509
275689 589766 470
759988 381149 509
724401 311547 509
560233 101787 470
921607 73764 525
127614 927589 525
80671 71731 351
34186 294466 443
118089 697739 509
316126 450135 449
479692 399410 449
304966 556565 470
948479 424600 525
479756 512419 470
763539 501197 509
330335 667106 509
108181 83350 354
511970 584323 452
715110 493960 509
911428 19460 525
586352 559718 434
915929 281427 525
441663 369790 449
858923 501576 525
437888 165661 449
342934 7862 443
611289 678370 509
493515 668542 509
129871 387012 443
769731 502129 509
639525 892791 525
854620 235685 525
264517 267112 332
410074 41027 449
738495 161574 509
996653 163305 525
663527 608742 509
660557 982892 525
117977 48424 354
130787 173357 383
879993 650687 525
785072 265081 509
54573 723274 509
559409 96526 470
519582 365745 470
546769 736233 509
236270 779578 509
636253 88530 509
130429 664397 509
886977 395695 525
575805 806576 509
569988 278561 470
682952 613571 509
736648 61177 509
439183 701329 509
949941 194425 525
966444 306184 525
932831 441159 525
384057 725296 509
722558 993465 525
44377 426156 449
192118 680224 509
196623 156712 370
244603 232650 381
720679 852621 525
257696 755888 509
504270 758762 509
914217 151901 525
563130 400482 470
47262 182155 383
811172 382833 509
529653 326744 470
930897 437180 525
740380 998196 525
850388 891919 445
880541 890745 445
776553 355679 509
357213 407985 436
845304 356612 525
774902 103746 509
551189 492686 470
949972 100964 525
282236 515258 470
671872 365250 509
485416 7639 449
678369 933757 525
546123 173990 470
272837 84252 443
829785 181664 509
839841 926351 476
89987 81434 333
606119 267946 470
806449 324917 509
75425 256841 443
60634 562679 470
392379 137340 443
982983 591177 525
757630 502815 509
341933 385395 441
82296 841077 525
776803 712411 468
334543 684685 509
93246 538916 470
264628 396718 441
393823 8308 443
388836 599362 470
543289 438678 470
369262 696640 509
2902 227101 386
136773 721989 509
672688 224971 509
121018 49752 354
